^C:\USERS\NAME\SOURCE\REPOS\C++\MINECRAFT\BUILD\BINT-INT\DEBUG-X64\CHUNK.OBJ|C:\USERS\NAME\SOURCE\REPOS\C++\MINECRAFT\BUILD\BINT-INT\DEBUG-X64\CHUNKGENERATOR.OBJ|C:\USERS\NAME\SOURCE\REPOS\C++\MINECRAFT\BUILD\BINT-INT\DEBUG-X64\CHUNKGENERATOR.OBJ|C:\USERS\NAME\SOURCE\REPOS\C++\MINECRAFT\BUILD\BINT-INT\DEBUG-X64\GAME.OBJ|C:\USERS\NAME\SOURCE\REPOS\C++\MINECRAFT\BUILD\BINT-INT\DEBUG-X64\MAIN.OBJ|C:\USERS\NAME\SOURCE\REPOS\C++\MINECRAFT\BUILD\BINT-INT\DEBUG-X64\MESH.OBJ|C:\USERS\NAME\SOURCE\REPOS\C++\MINECRAFT\BUILD\BINT-INT\DEBUG-X64\PLAYER.OBJ|C:\USERS\NAME\SOURCE\REPOS\C++\MINECRAFT\BUILD\BINT-INT\DEBUG-X64\SHADER.OBJ|C:\USERS\NAME\SOURCE\REPOS\C++\MINECRAFT\BUILD\BINT-INT\DEBUG-X64\STB_IMAGE.OBJ|C:\USERS\NAME\SOURCE\REPOS\C++\MINECRAFT\BUILD\BINT-INT\DEBUG-X64\TEXTURE.OBJ|C:\USERS\NAME\SOURCE\REPOS\C++\MINECRAFT\BUILD\BINT-INT\DEBUG-X64\TIME.OBJ|C:\USERS\NAME\SOURCE\REPOS\C++\MINECRAFT\BUILD\BINT-INT\DEBUG-X64\WINDOW.OBJ|C:\USERS\NAME\SOURCE\REPOS\C++\MINECRAFT\BUILD\BINT-INT\DEBUG-X64\WORLD.OBJ
C:\USERS\NAME\SOURCE\REPOS\C++\MINECRAFT\BUILD\BIN\DEBUG-X64\MINECRAFT.EXE
C:\USERS\NAME\SOURCE\REPOS\C++\MINECRAFT\BUILD\BIN\DEBUG-X64\MINECRAFT.ILK
C:\USERS\NAME\SOURCE\REPOS\C++\MINECRAFT\BUILD\BIN\DEBUG-X64\MINECRAFT.PDB
^C:\USERS\NAME\ONEDRIVE\REPOS\C++\MINECRAFT\BUILD\BINT-INT\DEBUG-X64\CHUNK.OBJ|C:\USERS\NAME\ONEDRIVE\REPOS\C++\MINECRAFT\BUILD\BINT-INT\DEBUG-X64\CHUNKGENERATOR.OBJ|C:\USERS\NAME\ONEDRIVE\REPOS\C++\MINECRAFT\BUILD\BINT-INT\DEBUG-X64\CHUNKGENERATOR.OBJ|C:\USERS\NAME\ONEDRIVE\REPOS\C++\MINECRAFT\BUILD\BINT-INT\DEBUG-X64\GAME.OBJ|C:\USERS\NAME\ONEDRIVE\REPOS\C++\MINECRAFT\BUILD\BINT-INT\DEBUG-X64\MAIN.OBJ|C:\USERS\NAME\ONEDRIVE\REPOS\C++\MINECRAFT\BUILD\BINT-INT\DEBUG-X64\MESH.OBJ|C:\USERS\NAME\ONEDRIVE\REPOS\C++\MINECRAFT\BUILD\BINT-INT\DEBUG-X64\PLAYER.OBJ|C:\USERS\NAME\ONEDRIVE\REPOS\C++\MINECRAFT\BUILD\BINT-INT\DEBUG-X64\SHADER.OBJ|C:\USERS\NAME\ONEDRIVE\REPOS\C++\MINECRAFT\BUILD\BINT-INT\DEBUG-X64\STB_IMAGE.OBJ|C:\USERS\NAME\ONEDRIVE\REPOS\C++\MINECRAFT\BUILD\BINT-INT\DEBUG-X64\TEXTURE.OBJ|C:\USERS\NAME\ONEDRIVE\REPOS\C++\MINECRAFT\BUILD\BINT-INT\DEBUG-X64\TIME.OBJ|C:\USERS\NAME\ONEDRIVE\REPOS\C++\MINECRAFT\BUILD\BINT-INT\DEBUG-X64\WINDOW.OBJ|C:\USERS\NAME\ONEDRIVE\REPOS\C++\MINECRAFT\BUILD\BINT-INT\DEBUG-X64\WORLD.OBJ
C:\USERS\NAME\ONEDRIVE\REPOS\C++\MINECRAFT\BUILD\BIN\DEBUG-X64\MINECRAFT.ILK
C:\USERS\NAME\ONEDRIVE\REPOS\C++\MINECRAFT\BUILD\BIN\DEBUG-X64\MINECRAFT.EXE
C:\USERS\NAME\ONEDRIVE\REPOS\C++\MINECRAFT\BUILD\BIN\DEBUG-X64\MINECRAFT.PDB
