^C:\USERS\NAME\SOURCE\REPOS\C++\MINECRAFT\BUILD\BINT-INT\DEBUG-X64\CHUNK.OBJ|C:\USERS\NAME\SOURCE\REPOS\C++\MINECRAFT\BUILD\BINT-INT\DEBUG-X64\CHUNKGENERATOR.OBJ|C:\USERS\NAME\SOURCE\REPOS\C++\MINECRAFT\BUILD\BINT-INT\DEBUG-X64\CHUNKGENERATOR.OBJ|C:\USERS\NAME\SOURCE\REPOS\C++\MINECRAFT\BUILD\BINT-INT\DEBUG-X64\GAME.OBJ|C:\USERS\NAME\SOURCE\REPOS\C++\MINECRAFT\BUILD\BINT-INT\DEBUG-X64\MAIN.OBJ|C:\USERS\NAME\SOURCE\REPOS\C++\MINECRAFT\BUILD\BINT-INT\DEBUG-X64\MESH.OBJ|C:\USERS\NAME\SOURCE\REPOS\C++\MINECRAFT\BUILD\BINT-INT\DEBUG-X64\PLAYER.OBJ|C:\USERS\NAME\SOURCE\REPOS\C++\MINECRAFT\BUILD\BINT-INT\DEBUG-X64\SHADER.OBJ|C:\USERS\NAME\SOURCE\REPOS\C++\MINECRAFT\BUILD\BINT-INT\DEBUG-X64\STB_IMAGE.OBJ|C:\USERS\NAME\SOURCE\REPOS\C++\MINECRAFT\BUILD\BINT-INT\DEBUG-X64\TEXTURE.OBJ|C:\USERS\NAME\SOURCE\REPOS\C++\MINECRAFT\BUILD\BINT-INT\DEBUG-X64\TIME.OBJ|C:\USERS\NAME\SOURCE\REPOS\C++\MINECRAFT\BUILD\BINT-INT\DEBUG-X64\WINDOW.OBJ|C:\USERS\NAME\SOURCE\REPOS\C++\MINECRAFT\BUILD\BINT-INT\DEBUG-X64\WORLD.OBJ
C:\USERS\NAME\SOURCE\REPOS\C++\MINECRAFT\DEPENDENCIES\GLFW\X64\LIB-VC2015\GLFW3.LIB
C:\USERS\NAME\SOURCE\REPOS\C++\MINECRAFT\DEPENDENCIES\GLEW\LIB\RELEASE\X64\GLEW32S.LIB
C:\PROGRAM FILES (X86)\WINDOWS KITS\10\LIB\10.0.17134.0\UM\X64\OPENGL32.LIB
C:\PROGRAM FILES (X86)\WINDOWS KITS\10\LIB\10.0.17134.0\UM\X64\USER32.LIB
C:\PROGRAM FILES (X86)\WINDOWS KITS\10\LIB\10.0.17134.0\UM\X64\GDI32.LIB
C:\PROGRAM FILES (X86)\WINDOWS KITS\10\LIB\10.0.17134.0\UM\X64\SHELL32.LIB
C:\USERS\NAME\SOURCE\REPOS\C++\MINECRAFT\BUILD\BINT-INT\DEBUG-X64\TIME.OBJ
C:\USERS\NAME\SOURCE\REPOS\C++\MINECRAFT\BUILD\BINT-INT\DEBUG-X64\WINDOW.OBJ
C:\USERS\NAME\SOURCE\REPOS\C++\MINECRAFT\BUILD\BINT-INT\DEBUG-X64\GAME.OBJ
C:\USERS\NAME\SOURCE\REPOS\C++\MINECRAFT\BUILD\BINT-INT\DEBUG-X64\CHUNKGENERATOR.OBJ
C:\USERS\NAME\SOURCE\REPOS\C++\MINECRAFT\BUILD\BINT-INT\DEBUG-X64\WORLD.OBJ
C:\USERS\NAME\SOURCE\REPOS\C++\MINECRAFT\BUILD\BINT-INT\DEBUG-X64\SHADER.OBJ
C:\USERS\NAME\SOURCE\REPOS\C++\MINECRAFT\BUILD\BINT-INT\DEBUG-X64\CHUNK.OBJ
C:\USERS\NAME\SOURCE\REPOS\C++\MINECRAFT\BUILD\BINT-INT\DEBUG-X64\MESH.OBJ
C:\USERS\NAME\SOURCE\REPOS\C++\MINECRAFT\BUILD\BINT-INT\DEBUG-X64\TEXTURE.OBJ
C:\USERS\NAME\SOURCE\REPOS\C++\MINECRAFT\BUILD\BINT-INT\DEBUG-X64\PLAYER.OBJ
C:\USERS\NAME\SOURCE\REPOS\C++\MINECRAFT\BUILD\BINT-INT\DEBUG-X64\MAIN.OBJ
C:\USERS\NAME\SOURCE\REPOS\C++\MINECRAFT\BUILD\BINT-INT\DEBUG-X64\STB_IMAGE.OBJ
C:\WINDOWS\SYSTEM32\TZRES.DLL
C:\WINDOWS\GLOBALIZATION\SORTING\SORTDEFAULT.NLS
C:\PROGRAM FILES (X86)\MICROSOFT VISUAL STUDIO\2017\COMMUNITY\VC\TOOLS\MSVC\14.16.27023\LIB\X64\MSVCRTD.LIB
C:\PROGRAM FILES (X86)\MICROSOFT VISUAL STUDIO\2017\COMMUNITY\VC\TOOLS\MSVC\14.16.27023\LIB\X64\OLDNAMES.LIB
C:\PROGRAM FILES (X86)\MICROSOFT VISUAL STUDIO\2017\COMMUNITY\VC\TOOLS\MSVC\14.16.27023\LIB\X64\MSVCPRTD.LIB
C:\PROGRAM FILES (X86)\WINDOWS KITS\10\LIB\10.0.17134.0\UM\X64\UUID.LIB
C:\PROGRAM FILES (X86)\MICROSOFT VISUAL STUDIO\2017\COMMUNITY\VC\TOOLS\MSVC\14.16.27023\LIB\X64\MSVCRT.LIB
C:\PROGRAM FILES (X86)\MICROSOFT VISUAL STUDIO\2017\COMMUNITY\VC\TOOLS\MSVC\14.16.27023\LIB\X64\LIBCMT.LIB
C:\PROGRAM FILES (X86)\WINDOWS KITS\10\LIB\10.0.17134.0\UM\X64\KERNEL32.LIB
C:\PROGRAM FILES (X86)\MICROSOFT VISUAL STUDIO\2017\COMMUNITY\VC\TOOLS\MSVC\14.16.27023\LIB\X64\VCRUNTIMED.LIB
C:\PROGRAM FILES (X86)\WINDOWS KITS\10\LIB\10.0.17134.0\UCRT\X64\UCRTD.LIB
C:\PROGRAM FILES (X86)\MICROSOFT VISUAL STUDIO\2017\COMMUNITY\VC\TOOLS\MSVC\14.16.27023\BIN\HOSTX86\X86\MSPDBSRV.EXE
^C:\USERS\NAME\ONEDRIVE\REPOS\C++\MINECRAFT\BUILD\BINT-INT\DEBUG-X64\CHUNK.OBJ|C:\USERS\NAME\ONEDRIVE\REPOS\C++\MINECRAFT\BUILD\BINT-INT\DEBUG-X64\CHUNKGENERATOR.OBJ|C:\USERS\NAME\ONEDRIVE\REPOS\C++\MINECRAFT\BUILD\BINT-INT\DEBUG-X64\CHUNKGENERATOR.OBJ|C:\USERS\NAME\ONEDRIVE\REPOS\C++\MINECRAFT\BUILD\BINT-INT\DEBUG-X64\GAME.OBJ|C:\USERS\NAME\ONEDRIVE\REPOS\C++\MINECRAFT\BUILD\BINT-INT\DEBUG-X64\MAIN.OBJ|C:\USERS\NAME\ONEDRIVE\REPOS\C++\MINECRAFT\BUILD\BINT-INT\DEBUG-X64\MESH.OBJ|C:\USERS\NAME\ONEDRIVE\REPOS\C++\MINECRAFT\BUILD\BINT-INT\DEBUG-X64\PLAYER.OBJ|C:\USERS\NAME\ONEDRIVE\REPOS\C++\MINECRAFT\BUILD\BINT-INT\DEBUG-X64\SHADER.OBJ|C:\USERS\NAME\ONEDRIVE\REPOS\C++\MINECRAFT\BUILD\BINT-INT\DEBUG-X64\STB_IMAGE.OBJ|C:\USERS\NAME\ONEDRIVE\REPOS\C++\MINECRAFT\BUILD\BINT-INT\DEBUG-X64\TEXTURE.OBJ|C:\USERS\NAME\ONEDRIVE\REPOS\C++\MINECRAFT\BUILD\BINT-INT\DEBUG-X64\TIME.OBJ|C:\USERS\NAME\ONEDRIVE\REPOS\C++\MINECRAFT\BUILD\BINT-INT\DEBUG-X64\WINDOW.OBJ|C:\USERS\NAME\ONEDRIVE\REPOS\C++\MINECRAFT\BUILD\BINT-INT\DEBUG-X64\WORLD.OBJ
C:\USERS\NAME\ONEDRIVE\REPOS\C++\MINECRAFT\DEPENDENCIES\GLFW\X64\LIB-VC2015\GLFW3.LIB
C:\USERS\NAME\ONEDRIVE\REPOS\C++\MINECRAFT\DEPENDENCIES\GLEW\LIB\RELEASE\X64\GLEW32S.LIB
C:\PROGRAM FILES (X86)\WINDOWS KITS\10\LIB\10.0.17134.0\UM\X64\OPENGL32.LIB
C:\PROGRAM FILES (X86)\WINDOWS KITS\10\LIB\10.0.17134.0\UM\X64\USER32.LIB
C:\PROGRAM FILES (X86)\WINDOWS KITS\10\LIB\10.0.17134.0\UM\X64\GDI32.LIB
C:\PROGRAM FILES (X86)\WINDOWS KITS\10\LIB\10.0.17134.0\UM\X64\SHELL32.LIB
C:\USERS\NAME\ONEDRIVE\REPOS\C++\MINECRAFT\BUILD\BINT-INT\DEBUG-X64\TIME.OBJ
C:\USERS\NAME\ONEDRIVE\REPOS\C++\MINECRAFT\BUILD\BINT-INT\DEBUG-X64\WINDOW.OBJ
C:\USERS\NAME\ONEDRIVE\REPOS\C++\MINECRAFT\BUILD\BINT-INT\DEBUG-X64\GAME.OBJ
C:\USERS\NAME\ONEDRIVE\REPOS\C++\MINECRAFT\BUILD\BINT-INT\DEBUG-X64\CHUNKGENERATOR.OBJ
C:\USERS\NAME\ONEDRIVE\REPOS\C++\MINECRAFT\BUILD\BINT-INT\DEBUG-X64\WORLD.OBJ
C:\USERS\NAME\ONEDRIVE\REPOS\C++\MINECRAFT\BUILD\BINT-INT\DEBUG-X64\SHADER.OBJ
C:\USERS\NAME\ONEDRIVE\REPOS\C++\MINECRAFT\BUILD\BINT-INT\DEBUG-X64\CHUNK.OBJ
C:\USERS\NAME\ONEDRIVE\REPOS\C++\MINECRAFT\BUILD\BINT-INT\DEBUG-X64\MESH.OBJ
C:\USERS\NAME\ONEDRIVE\REPOS\C++\MINECRAFT\BUILD\BINT-INT\DEBUG-X64\TEXTURE.OBJ
C:\USERS\NAME\ONEDRIVE\REPOS\C++\MINECRAFT\BUILD\BINT-INT\DEBUG-X64\PLAYER.OBJ
C:\USERS\NAME\ONEDRIVE\REPOS\C++\MINECRAFT\BUILD\BINT-INT\DEBUG-X64\MAIN.OBJ
C:\USERS\NAME\ONEDRIVE\REPOS\C++\MINECRAFT\BUILD\BINT-INT\DEBUG-X64\STB_IMAGE.OBJ
C:\WINDOWS\SYSTEM32\TZRES.DLL
C:\WINDOWS\GLOBALIZATION\SORTING\SORTDEFAULT.NLS
C:\PROGRAM FILES (X86)\MICROSOFT VISUAL STUDIO\2017\COMMUNITY\VC\TOOLS\MSVC\14.16.27023\BIN\HOSTX86\X64\1033\LINKUI.DLL
C:\PROGRAM FILES (X86)\MICROSOFT VISUAL STUDIO\2017\COMMUNITY\VC\TOOLS\MSVC\14.16.27023\LIB\X64\MSVCRTD.LIB
C:\PROGRAM FILES (X86)\MICROSOFT VISUAL STUDIO\2017\COMMUNITY\VC\TOOLS\MSVC\14.16.27023\LIB\X64\OLDNAMES.LIB
C:\PROGRAM FILES (X86)\MICROSOFT VISUAL STUDIO\2017\COMMUNITY\VC\TOOLS\MSVC\14.16.27023\LIB\X64\MSVCPRTD.LIB
C:\PROGRAM FILES (X86)\WINDOWS KITS\10\LIB\10.0.17134.0\UM\X64\UUID.LIB
C:\PROGRAM FILES (X86)\MICROSOFT VISUAL STUDIO\2017\COMMUNITY\VC\TOOLS\MSVC\14.16.27023\LIB\X64\MSVCRT.LIB
C:\PROGRAM FILES (X86)\MICROSOFT VISUAL STUDIO\2017\COMMUNITY\VC\TOOLS\MSVC\14.16.27023\LIB\X64\LIBCMT.LIB
C:\PROGRAM FILES (X86)\WINDOWS KITS\10\LIB\10.0.17134.0\UM\X64\KERNEL32.LIB
C:\PROGRAM FILES (X86)\MICROSOFT VISUAL STUDIO\2017\COMMUNITY\VC\TOOLS\MSVC\14.16.27023\LIB\X64\VCRUNTIMED.LIB
C:\PROGRAM FILES (X86)\WINDOWS KITS\10\LIB\10.0.17134.0\UCRT\X64\UCRTD.LIB
C:\PROGRAM FILES (X86)\WINDOWS KITS\10\BIN\10.0.17134.0\X86\RC.EXE
C:\PROGRAM FILES (X86)\MICROSOFT VISUAL STUDIO\2017\COMMUNITY\VC\TOOLS\MSVC\14.16.27023\BIN\HOSTX86\X86\CVTRES.EXE
C:\PROGRAM FILES (X86)\MICROSOFT VISUAL STUDIO\2017\COMMUNITY\VC\TOOLS\MSVC\14.16.27023\BIN\HOSTX86\X86\MSPDBSRV.EXE
