^C:\USERS\NAME\SOURCE\REPOS\C++\MINECRAFT\MINECRAFT\SOURCE\ENGIE\CORE\TIME.CPP
/c /IC:\USERS\NAME\SOURCE\REPOS\C++\MINECRAFT\DEPENDENCIES\GLFW\WIN32\INCLUDE\ /IC:\USERS\NAME\SOURCE\REPOS\C++\MINECRAFT\DEPENDENCIES\GLEW\INCLUDE\ /ZI /JMC /nologo /W3 /WX- /diagnostics:classic /sdl /Od /Oy- /D GLEW_STATIC /D _MBCS /D _MBCS /Gm- /EHsc /RTC1 /MDd /GS /fp:precise /permissive- /Zc:wchar_t /Zc:forScope /Zc:inline /Fo"C:\USERS\NAME\SOURCE\REPOS\C++\MINECRAFT\BUILD\BINT-INT\DEBUG-WIN32\\" /Fd"C:\USERS\NAME\SOURCE\REPOS\C++\MINECRAFT\BUILD\BINT-INT\DEBUG-WIN32\\VC141.PDB" /Gd /TP /analyze- /FC C:\USERS\NAME\SOURCE\REPOS\C++\MINECRAFT\MINECRAFT\SOURCE\ENGIE\CORE\TIME.CPP
^C:\USERS\NAME\SOURCE\REPOS\C++\MINECRAFT\MINECRAFT\SOURCE\ENGIE\CORE\WINDOW.CPP
/c /IC:\USERS\NAME\SOURCE\REPOS\C++\MINECRAFT\DEPENDENCIES\GLFW\WIN32\INCLUDE\ /IC:\USERS\NAME\SOURCE\REPOS\C++\MINECRAFT\DEPENDENCIES\GLEW\INCLUDE\ /ZI /JMC /nologo /W3 /WX- /diagnostics:classic /sdl /Od /Oy- /D GLEW_STATIC /D _MBCS /D _MBCS /Gm- /EHsc /RTC1 /MDd /GS /fp:precise /permissive- /Zc:wchar_t /Zc:forScope /Zc:inline /Fo"C:\USERS\NAME\SOURCE\REPOS\C++\MINECRAFT\BUILD\BINT-INT\DEBUG-WIN32\\" /Fd"C:\USERS\NAME\SOURCE\REPOS\C++\MINECRAFT\BUILD\BINT-INT\DEBUG-WIN32\\VC141.PDB" /Gd /TP /analyze- /FC C:\USERS\NAME\SOURCE\REPOS\C++\MINECRAFT\MINECRAFT\SOURCE\ENGIE\CORE\WINDOW.CPP
^C:\USERS\NAME\SOURCE\REPOS\C++\MINECRAFT\MINECRAFT\SOURCE\ENGIE\RENDERER\BASE\SHADER.CPP
/c /IC:\USERS\NAME\SOURCE\REPOS\C++\MINECRAFT\DEPENDENCIES\GLFW\WIN32\INCLUDE\ /IC:\USERS\NAME\SOURCE\REPOS\C++\MINECRAFT\DEPENDENCIES\GLEW\INCLUDE\ /ZI /JMC /nologo /W3 /WX- /diagnostics:classic /sdl /Od /Oy- /D GLEW_STATIC /D _MBCS /D _MBCS /Gm- /EHsc /RTC1 /MDd /GS /fp:precise /permissive- /Zc:wchar_t /Zc:forScope /Zc:inline /Fo"C:\USERS\NAME\SOURCE\REPOS\C++\MINECRAFT\BUILD\BINT-INT\DEBUG-WIN32\\" /Fd"C:\USERS\NAME\SOURCE\REPOS\C++\MINECRAFT\BUILD\BINT-INT\DEBUG-WIN32\\VC141.PDB" /Gd /TP /analyze- /FC C:\USERS\NAME\SOURCE\REPOS\C++\MINECRAFT\MINECRAFT\SOURCE\ENGIE\RENDERER\BASE\SHADER.CPP
^C:\USERS\NAME\SOURCE\REPOS\C++\MINECRAFT\MINECRAFT\SOURCE\MAIN.CPP
/c /IC:\USERS\NAME\SOURCE\REPOS\C++\MINECRAFT\DEPENDENCIES\GLFW\WIN32\INCLUDE\ /IC:\USERS\NAME\SOURCE\REPOS\C++\MINECRAFT\DEPENDENCIES\GLEW\INCLUDE\ /ZI /JMC /nologo /W3 /WX- /diagnostics:classic /sdl /Od /Oy- /D GLEW_STATIC /D _MBCS /D _MBCS /Gm- /EHsc /RTC1 /MDd /GS /fp:precise /permissive- /Zc:wchar_t /Zc:forScope /Zc:inline /Fo"C:\USERS\NAME\SOURCE\REPOS\C++\MINECRAFT\BUILD\BINT-INT\DEBUG-WIN32\\" /Fd"C:\USERS\NAME\SOURCE\REPOS\C++\MINECRAFT\BUILD\BINT-INT\DEBUG-WIN32\\VC141.PDB" /Gd /TP /analyze- /FC C:\USERS\NAME\SOURCE\REPOS\C++\MINECRAFT\MINECRAFT\SOURCE\MAIN.CPP
