^C:\USERS\NAME\SOURCE\REPOS\C++\MINECRAFT\BUILD\BINT-INT\DEBUG-WIN32\MAIN.OBJ|C:\USERS\NAME\SOURCE\REPOS\C++\MINECRAFT\BUILD\BINT-INT\DEBUG-WIN32\SHADER.OBJ|C:\USERS\NAME\SOURCE\REPOS\C++\MINECRAFT\BUILD\BINT-INT\DEBUG-WIN32\TIME.OBJ|C:\USERS\NAME\SOURCE\REPOS\C++\MINECRAFT\BUILD\BINT-INT\DEBUG-WIN32\WINDOW.OBJ
C:\USERS\NAME\SOURCE\REPOS\C++\MINECRAFT\DEPENDENCIES\GLFW\WIN32\LIB-VC2015\GLFW3.LIB
C:\USERS\NAME\SOURCE\REPOS\C++\MINECRAFT\DEPENDENCIES\GLEW\LIB\RELEASE\WIN32\GLEW32S.LIB
C:\PROGRAM FILES (X86)\WINDOWS KITS\10\LIB\10.0.17134.0\UM\X86\OPENGL32.LIB
C:\PROGRAM FILES (X86)\WINDOWS KITS\10\LIB\10.0.17134.0\UM\X86\USER32.LIB
C:\PROGRAM FILES (X86)\WINDOWS KITS\10\LIB\10.0.17134.0\UM\X86\GDI32.LIB
C:\PROGRAM FILES (X86)\WINDOWS KITS\10\LIB\10.0.17134.0\UM\X86\SHELL32.LIB
C:\USERS\NAME\SOURCE\REPOS\C++\MINECRAFT\BUILD\BINT-INT\DEBUG-WIN32\TIME.OBJ
C:\USERS\NAME\SOURCE\REPOS\C++\MINECRAFT\BUILD\BINT-INT\DEBUG-WIN32\WINDOW.OBJ
C:\USERS\NAME\SOURCE\REPOS\C++\MINECRAFT\BUILD\BINT-INT\DEBUG-WIN32\SHADER.OBJ
C:\USERS\NAME\SOURCE\REPOS\C++\MINECRAFT\BUILD\BINT-INT\DEBUG-WIN32\MAIN.OBJ
C:\WINDOWS\GLOBALIZATION\SORTING\SORTDEFAULT.NLS
C:\PROGRAM FILES (X86)\MICROSOFT VISUAL STUDIO\2017\COMMUNITY\VC\TOOLS\MSVC\14.15.26726\LIB\X86\MSVCRTD.LIB
C:\PROGRAM FILES (X86)\MICROSOFT VISUAL STUDIO\2017\COMMUNITY\VC\TOOLS\MSVC\14.15.26726\LIB\X86\OLDNAMES.LIB
C:\PROGRAM FILES (X86)\MICROSOFT VISUAL STUDIO\2017\COMMUNITY\VC\TOOLS\MSVC\14.15.26726\LIB\X86\MSVCPRTD.LIB
C:\PROGRAM FILES (X86)\WINDOWS KITS\10\LIB\10.0.17134.0\UM\X86\UUID.LIB
C:\PROGRAM FILES (X86)\MICROSOFT VISUAL STUDIO\2017\COMMUNITY\VC\TOOLS\MSVC\14.15.26726\LIB\X86\MSVCRT.LIB
C:\PROGRAM FILES (X86)\MICROSOFT VISUAL STUDIO\2017\COMMUNITY\VC\TOOLS\MSVC\14.15.26726\LIB\X86\LIBCMT.LIB
C:\PROGRAM FILES (X86)\WINDOWS KITS\10\LIB\10.0.17134.0\UM\X86\KERNEL32.LIB
C:\PROGRAM FILES (X86)\MICROSOFT VISUAL STUDIO\2017\COMMUNITY\VC\TOOLS\MSVC\14.15.26726\LIB\X86\VCRUNTIMED.LIB
C:\PROGRAM FILES (X86)\WINDOWS KITS\10\LIB\10.0.17134.0\UCRT\X86\UCRTD.LIB
C:\PROGRAM FILES (X86)\MICROSOFT VISUAL STUDIO\2017\COMMUNITY\VC\TOOLS\MSVC\14.15.26726\BIN\HOSTX86\X86\1033\LINKUI.DLL
C:\PROGRAM FILES (X86)\WINDOWS KITS\10\BIN\10.0.17134.0\X86\RC.EXE
C:\PROGRAM FILES (X86)\MICROSOFT VISUAL STUDIO\2017\COMMUNITY\VC\TOOLS\MSVC\14.15.26726\BIN\HOSTX86\X86\CVTRES.EXE
C:\WINDOWS\SYSTEM32\TZRES.DLL
