^C:\USERS\NAME\SOURCE\REPOS\C++\MINECRAFT\MINECRAFT\SOURCE\ENGIE\CORE\TIME.CPP|C:\USERS\NAME\SOURCE\REPOS\C++\MINECRAFT\MINECRAFT\SOURCE\ENGIE\CORE\WINDOW.CPP|C:\USERS\NAME\SOURCE\REPOS\C++\MINECRAFT\MINECRAFT\SOURCE\ENGIE\GAME\GAME.CPP|C:\USERS\NAME\SOURCE\REPOS\C++\MINECRAFT\MINECRAFT\SOURCE\ENGIE\GAME\GENERATION\CHUNKGENERATOR.CPP|C:\USERS\NAME\SOURCE\REPOS\C++\MINECRAFT\MINECRAFT\SOURCE\ENGIE\GAME\GENERATION\CHUNKGENERATOR.H|C:\USERS\NAME\SOURCE\REPOS\C++\MINECRAFT\MINECRAFT\SOURCE\ENGIE\GAME\WORLD.CPP|C:\USERS\NAME\SOURCE\REPOS\C++\MINECRAFT\MINECRAFT\SOURCE\ENGIE\RENDERER\BASE\SHADER.CPP|C:\USERS\NAME\SOURCE\REPOS\C++\MINECRAFT\MINECRAFT\SOURCE\ENGIE\RENDERER\DATA\CHUNK.CPP|C:\USERS\NAME\SOURCE\REPOS\C++\MINECRAFT\MINECRAFT\SOURCE\ENGIE\RENDERER\LOADING\MESH.CPP|C:\USERS\NAME\SOURCE\REPOS\C++\MINECRAFT\MINECRAFT\SOURCE\ENGIE\RENDERER\LOADING\TEXTURE.CPP|C:\USERS\NAME\SOURCE\REPOS\C++\MINECRAFT\MINECRAFT\SOURCE\ENGIE\RENDERER\PLAYER\PLAYER.CPP|C:\USERS\NAME\SOURCE\REPOS\C++\MINECRAFT\MINECRAFT\SOURCE\MAIN.CPP|C:\USERS\NAME\SOURCE\REPOS\C++\MINECRAFT\MINECRAFT\SOURCE\VENDOR\STB_IMAGE.CPP
C:\USERS\NAME\SOURCE\REPOS\C++\MINECRAFT\BUILD\BINT-INT\RELEASE-X64\VC141.PDB
C:\USERS\NAME\SOURCE\REPOS\C++\MINECRAFT\BUILD\BINT-INT\RELEASE-X64\STB_IMAGE.OBJ
C:\USERS\NAME\SOURCE\REPOS\C++\MINECRAFT\BUILD\BINT-INT\RELEASE-X64\MAIN.OBJ
C:\USERS\NAME\SOURCE\REPOS\C++\MINECRAFT\BUILD\BINT-INT\RELEASE-X64\PLAYER.OBJ
C:\USERS\NAME\SOURCE\REPOS\C++\MINECRAFT\BUILD\BINT-INT\RELEASE-X64\TEXTURE.OBJ
C:\USERS\NAME\SOURCE\REPOS\C++\MINECRAFT\BUILD\BINT-INT\RELEASE-X64\MESH.OBJ
C:\USERS\NAME\SOURCE\REPOS\C++\MINECRAFT\BUILD\BINT-INT\RELEASE-X64\CHUNK.OBJ
C:\USERS\NAME\SOURCE\REPOS\C++\MINECRAFT\BUILD\BINT-INT\RELEASE-X64\SHADER.OBJ
C:\USERS\NAME\SOURCE\REPOS\C++\MINECRAFT\BUILD\BINT-INT\RELEASE-X64\WORLD.OBJ
C:\USERS\NAME\SOURCE\REPOS\C++\MINECRAFT\BUILD\BINT-INT\RELEASE-X64\CHUNKGENERATOR.OBJ
C:\USERS\NAME\SOURCE\REPOS\C++\MINECRAFT\BUILD\BINT-INT\RELEASE-X64\GAME.OBJ
C:\USERS\NAME\SOURCE\REPOS\C++\MINECRAFT\BUILD\BINT-INT\RELEASE-X64\WINDOW.OBJ
C:\USERS\NAME\SOURCE\REPOS\C++\MINECRAFT\BUILD\BINT-INT\RELEASE-X64\TIME.OBJ
^C:\USERS\NAME\SOURCE\REPOS\C++\MINECRAFT\MINECRAFT\SOURCE\ENGIE\CORE\TIME.CPP
C:\USERS\NAME\SOURCE\REPOS\C++\MINECRAFT\BUILD\BINT-INT\RELEASE-X64\VC141.PDB
^C:\USERS\NAME\SOURCE\REPOS\C++\MINECRAFT\MINECRAFT\SOURCE\ENGIE\CORE\WINDOW.CPP
C:\USERS\NAME\SOURCE\REPOS\C++\MINECRAFT\BUILD\BINT-INT\RELEASE-X64\VC141.PDB
^C:\USERS\NAME\SOURCE\REPOS\C++\MINECRAFT\MINECRAFT\SOURCE\ENGIE\GAME\GENERATION\CHUNKGENERATOR.H
C:\USERS\NAME\SOURCE\REPOS\C++\MINECRAFT\BUILD\BINT-INT\RELEASE-X64\VC141.PDB
^C:\USERS\NAME\SOURCE\REPOS\C++\MINECRAFT\MINECRAFT\SOURCE\ENGIE\RENDERER\BASE\SHADER.CPP
C:\USERS\NAME\SOURCE\REPOS\C++\MINECRAFT\BUILD\BINT-INT\RELEASE-X64\VC141.PDB
^C:\USERS\NAME\SOURCE\REPOS\C++\MINECRAFT\MINECRAFT\SOURCE\ENGIE\RENDERER\LOADING\MESH.CPP
C:\USERS\NAME\SOURCE\REPOS\C++\MINECRAFT\BUILD\BINT-INT\RELEASE-X64\VC141.PDB
^C:\USERS\NAME\SOURCE\REPOS\C++\MINECRAFT\MINECRAFT\SOURCE\ENGIE\RENDERER\LOADING\TEXTURE.CPP
C:\USERS\NAME\SOURCE\REPOS\C++\MINECRAFT\BUILD\BINT-INT\RELEASE-X64\VC141.PDB
^C:\USERS\NAME\SOURCE\REPOS\C++\MINECRAFT\MINECRAFT\SOURCE\ENGIE\RENDERER\PLAYER\PLAYER.CPP
C:\USERS\NAME\SOURCE\REPOS\C++\MINECRAFT\BUILD\BINT-INT\RELEASE-X64\VC141.PDB
^C:\USERS\NAME\SOURCE\REPOS\C++\MINECRAFT\MINECRAFT\SOURCE\VENDOR\STB_IMAGE.CPP
C:\USERS\NAME\SOURCE\REPOS\C++\MINECRAFT\BUILD\BINT-INT\RELEASE-X64\VC141.PDB
^C:\USERS\NAME\SOURCE\REPOS\C++\MINECRAFT\MINECRAFT\SOURCE\ENGIE\GAME\GAME.CPP|C:\USERS\NAME\SOURCE\REPOS\C++\MINECRAFT\MINECRAFT\SOURCE\ENGIE\GAME\GENERATION\CHUNKGENERATOR.CPP|C:\USERS\NAME\SOURCE\REPOS\C++\MINECRAFT\MINECRAFT\SOURCE\ENGIE\GAME\WORLD.CPP|C:\USERS\NAME\SOURCE\REPOS\C++\MINECRAFT\MINECRAFT\SOURCE\ENGIE\RENDERER\DATA\CHUNK.CPP|C:\USERS\NAME\SOURCE\REPOS\C++\MINECRAFT\MINECRAFT\SOURCE\MAIN.CPP
C:\USERS\NAME\SOURCE\REPOS\C++\MINECRAFT\BUILD\BINT-INT\RELEASE-X64\VC141.PDB
C:\USERS\NAME\SOURCE\REPOS\C++\MINECRAFT\BUILD\BINT-INT\RELEASE-X64\MAIN.OBJ
C:\USERS\NAME\SOURCE\REPOS\C++\MINECRAFT\BUILD\BINT-INT\RELEASE-X64\CHUNK.OBJ
C:\USERS\NAME\SOURCE\REPOS\C++\MINECRAFT\BUILD\BINT-INT\RELEASE-X64\WORLD.OBJ
C:\USERS\NAME\SOURCE\REPOS\C++\MINECRAFT\BUILD\BINT-INT\RELEASE-X64\CHUNKGENERATOR.OBJ
C:\USERS\NAME\SOURCE\REPOS\C++\MINECRAFT\BUILD\BINT-INT\RELEASE-X64\GAME.OBJ
^C:\USERS\NAME\SOURCE\REPOS\C++\MINECRAFT\MINECRAFT\SOURCE\ENGIE\GAME\GAME.CPP
C:\USERS\NAME\SOURCE\REPOS\C++\MINECRAFT\BUILD\BINT-INT\RELEASE-X64\VC141.PDB
^C:\USERS\NAME\SOURCE\REPOS\C++\MINECRAFT\MINECRAFT\SOURCE\ENGIE\GAME\GENERATION\CHUNKGENERATOR.CPP
C:\USERS\NAME\SOURCE\REPOS\C++\MINECRAFT\BUILD\BINT-INT\RELEASE-X64\VC141.PDB
^C:\USERS\NAME\SOURCE\REPOS\C++\MINECRAFT\MINECRAFT\SOURCE\ENGIE\GAME\WORLD.CPP
C:\USERS\NAME\SOURCE\REPOS\C++\MINECRAFT\BUILD\BINT-INT\RELEASE-X64\VC141.PDB
^C:\USERS\NAME\SOURCE\REPOS\C++\MINECRAFT\MINECRAFT\SOURCE\ENGIE\RENDERER\DATA\CHUNK.CPP
C:\USERS\NAME\SOURCE\REPOS\C++\MINECRAFT\BUILD\BINT-INT\RELEASE-X64\VC141.PDB
^C:\USERS\NAME\SOURCE\REPOS\C++\MINECRAFT\MINECRAFT\SOURCE\MAIN.CPP
C:\USERS\NAME\SOURCE\REPOS\C++\MINECRAFT\BUILD\BINT-INT\RELEASE-X64\VC141.PDB
^C:\USERS\NAME\ONEDRIVE\REPOS\C++\MINECRAFT\MINECRAFT\SOURCE\ENGIE\CORE\TIME.CPP|C:\USERS\NAME\ONEDRIVE\REPOS\C++\MINECRAFT\MINECRAFT\SOURCE\ENGIE\CORE\WINDOW.CPP|C:\USERS\NAME\ONEDRIVE\REPOS\C++\MINECRAFT\MINECRAFT\SOURCE\ENGIE\GAME\GAME.CPP|C:\USERS\NAME\ONEDRIVE\REPOS\C++\MINECRAFT\MINECRAFT\SOURCE\ENGIE\GAME\GENERATION\CHUNKGENERATOR.CPP|C:\USERS\NAME\ONEDRIVE\REPOS\C++\MINECRAFT\MINECRAFT\SOURCE\ENGIE\GAME\GENERATION\CHUNKGENERATOR.H|C:\USERS\NAME\ONEDRIVE\REPOS\C++\MINECRAFT\MINECRAFT\SOURCE\ENGIE\GAME\WORLD.CPP|C:\USERS\NAME\ONEDRIVE\REPOS\C++\MINECRAFT\MINECRAFT\SOURCE\ENGIE\RENDERER\BASE\SHADER.CPP|C:\USERS\NAME\ONEDRIVE\REPOS\C++\MINECRAFT\MINECRAFT\SOURCE\ENGIE\RENDERER\DATA\CHUNK.CPP|C:\USERS\NAME\ONEDRIVE\REPOS\C++\MINECRAFT\MINECRAFT\SOURCE\ENGIE\RENDERER\LOADING\MESH.CPP|C:\USERS\NAME\ONEDRIVE\REPOS\C++\MINECRAFT\MINECRAFT\SOURCE\ENGIE\RENDERER\LOADING\TEXTURE.CPP|C:\USERS\NAME\ONEDRIVE\REPOS\C++\MINECRAFT\MINECRAFT\SOURCE\ENGIE\RENDERER\PLAYER\PLAYER.CPP|C:\USERS\NAME\ONEDRIVE\REPOS\C++\MINECRAFT\MINECRAFT\SOURCE\MAIN.CPP|C:\USERS\NAME\ONEDRIVE\REPOS\C++\MINECRAFT\MINECRAFT\SOURCE\VENDOR\STB_IMAGE.CPP
C:\USERS\NAME\ONEDRIVE\REPOS\C++\MINECRAFT\BUILD\BINT-INT\RELEASE-X64\VC141.PDB
C:\USERS\NAME\ONEDRIVE\REPOS\C++\MINECRAFT\BUILD\BINT-INT\RELEASE-X64\STB_IMAGE.OBJ
C:\USERS\NAME\ONEDRIVE\REPOS\C++\MINECRAFT\BUILD\BINT-INT\RELEASE-X64\MAIN.OBJ
C:\USERS\NAME\ONEDRIVE\REPOS\C++\MINECRAFT\BUILD\BINT-INT\RELEASE-X64\PLAYER.OBJ
C:\USERS\NAME\ONEDRIVE\REPOS\C++\MINECRAFT\BUILD\BINT-INT\RELEASE-X64\TEXTURE.OBJ
C:\USERS\NAME\ONEDRIVE\REPOS\C++\MINECRAFT\BUILD\BINT-INT\RELEASE-X64\MESH.OBJ
C:\USERS\NAME\ONEDRIVE\REPOS\C++\MINECRAFT\BUILD\BINT-INT\RELEASE-X64\CHUNK.OBJ
C:\USERS\NAME\ONEDRIVE\REPOS\C++\MINECRAFT\BUILD\BINT-INT\RELEASE-X64\SHADER.OBJ
C:\USERS\NAME\ONEDRIVE\REPOS\C++\MINECRAFT\BUILD\BINT-INT\RELEASE-X64\WORLD.OBJ
C:\USERS\NAME\ONEDRIVE\REPOS\C++\MINECRAFT\BUILD\BINT-INT\RELEASE-X64\CHUNKGENERATOR.OBJ
C:\USERS\NAME\ONEDRIVE\REPOS\C++\MINECRAFT\BUILD\BINT-INT\RELEASE-X64\GAME.OBJ
C:\USERS\NAME\ONEDRIVE\REPOS\C++\MINECRAFT\BUILD\BINT-INT\RELEASE-X64\WINDOW.OBJ
C:\USERS\NAME\ONEDRIVE\REPOS\C++\MINECRAFT\BUILD\BINT-INT\RELEASE-X64\TIME.OBJ
^C:\USERS\NAME\ONEDRIVE\REPOS\C++\MINECRAFT\MINECRAFT\SOURCE\ENGIE\CORE\TIME.CPP
C:\USERS\NAME\ONEDRIVE\REPOS\C++\MINECRAFT\BUILD\BINT-INT\RELEASE-X64\VC141.PDB
^C:\USERS\NAME\ONEDRIVE\REPOS\C++\MINECRAFT\MINECRAFT\SOURCE\ENGIE\CORE\WINDOW.CPP
C:\USERS\NAME\ONEDRIVE\REPOS\C++\MINECRAFT\BUILD\BINT-INT\RELEASE-X64\VC141.PDB
^C:\USERS\NAME\ONEDRIVE\REPOS\C++\MINECRAFT\MINECRAFT\SOURCE\ENGIE\GAME\GAME.CPP
C:\USERS\NAME\ONEDRIVE\REPOS\C++\MINECRAFT\BUILD\BINT-INT\RELEASE-X64\VC141.PDB
^C:\USERS\NAME\ONEDRIVE\REPOS\C++\MINECRAFT\MINECRAFT\SOURCE\ENGIE\GAME\GENERATION\CHUNKGENERATOR.CPP
C:\USERS\NAME\ONEDRIVE\REPOS\C++\MINECRAFT\BUILD\BINT-INT\RELEASE-X64\VC141.PDB
^C:\USERS\NAME\ONEDRIVE\REPOS\C++\MINECRAFT\MINECRAFT\SOURCE\ENGIE\GAME\GENERATION\CHUNKGENERATOR.H
C:\USERS\NAME\ONEDRIVE\REPOS\C++\MINECRAFT\BUILD\BINT-INT\RELEASE-X64\VC141.PDB
^C:\USERS\NAME\ONEDRIVE\REPOS\C++\MINECRAFT\MINECRAFT\SOURCE\ENGIE\GAME\WORLD.CPP
C:\USERS\NAME\ONEDRIVE\REPOS\C++\MINECRAFT\BUILD\BINT-INT\RELEASE-X64\VC141.PDB
^C:\USERS\NAME\ONEDRIVE\REPOS\C++\MINECRAFT\MINECRAFT\SOURCE\ENGIE\RENDERER\BASE\SHADER.CPP
C:\USERS\NAME\ONEDRIVE\REPOS\C++\MINECRAFT\BUILD\BINT-INT\RELEASE-X64\VC141.PDB
^C:\USERS\NAME\ONEDRIVE\REPOS\C++\MINECRAFT\MINECRAFT\SOURCE\ENGIE\RENDERER\DATA\CHUNK.CPP
C:\USERS\NAME\ONEDRIVE\REPOS\C++\MINECRAFT\BUILD\BINT-INT\RELEASE-X64\VC141.PDB
^C:\USERS\NAME\ONEDRIVE\REPOS\C++\MINECRAFT\MINECRAFT\SOURCE\ENGIE\RENDERER\LOADING\MESH.CPP
C:\USERS\NAME\ONEDRIVE\REPOS\C++\MINECRAFT\BUILD\BINT-INT\RELEASE-X64\VC141.PDB
^C:\USERS\NAME\ONEDRIVE\REPOS\C++\MINECRAFT\MINECRAFT\SOURCE\ENGIE\RENDERER\LOADING\TEXTURE.CPP
C:\USERS\NAME\ONEDRIVE\REPOS\C++\MINECRAFT\BUILD\BINT-INT\RELEASE-X64\VC141.PDB
^C:\USERS\NAME\ONEDRIVE\REPOS\C++\MINECRAFT\MINECRAFT\SOURCE\ENGIE\RENDERER\PLAYER\PLAYER.CPP
C:\USERS\NAME\ONEDRIVE\REPOS\C++\MINECRAFT\BUILD\BINT-INT\RELEASE-X64\VC141.PDB
^C:\USERS\NAME\ONEDRIVE\REPOS\C++\MINECRAFT\MINECRAFT\SOURCE\MAIN.CPP
C:\USERS\NAME\ONEDRIVE\REPOS\C++\MINECRAFT\BUILD\BINT-INT\RELEASE-X64\VC141.PDB
^C:\USERS\NAME\ONEDRIVE\REPOS\C++\MINECRAFT\MINECRAFT\SOURCE\VENDOR\STB_IMAGE.CPP
C:\USERS\NAME\ONEDRIVE\REPOS\C++\MINECRAFT\BUILD\BINT-INT\RELEASE-X64\VC141.PDB
