c:\users\name\source\repos\c++\minecraft\build\bint-int\debug-win32\vc141.pdb
c:\users\name\source\repos\c++\minecraft\build\bint-int\debug-win32\vc141.idb
c:\users\name\source\repos\c++\minecraft\build\bint-int\debug-win32\main.obj
c:\users\name\source\repos\c++\minecraft\build\bint-int\debug-win32\shader.obj
c:\users\name\source\repos\c++\minecraft\build\bint-int\debug-win32\window.obj
c:\users\name\source\repos\c++\minecraft\build\bint-int\debug-win32\time.obj
c:\users\name\source\repos\c++\minecraft\build\bin\debug-win32\minecraft.exe
c:\users\name\source\repos\c++\minecraft\build\bin\debug-win32\minecraft.ilk
c:\users\name\source\repos\c++\minecraft\build\bin\debug-win32\minecraft.pdb
c:\users\name\source\repos\c++\minecraft\build\bint-int\debug-win32\minecraft.tlog\cl.command.1.tlog
c:\users\name\source\repos\c++\minecraft\build\bint-int\debug-win32\minecraft.tlog\cl.read.1.tlog
c:\users\name\source\repos\c++\minecraft\build\bint-int\debug-win32\minecraft.tlog\cl.write.1.tlog
c:\users\name\source\repos\c++\minecraft\build\bint-int\debug-win32\minecraft.tlog\link.command.1.tlog
c:\users\name\source\repos\c++\minecraft\build\bint-int\debug-win32\minecraft.tlog\link.read.1.tlog
c:\users\name\source\repos\c++\minecraft\build\bint-int\debug-win32\minecraft.tlog\link.write.1.tlog
